## Interface: 70300
## Title: HadAPieEmotes
## Author: Sayori @ Icecrown-US
## Version: v2
## SavedVariablesPerCharacter: Emoticons_Settings Emoticons_Eyecandy
UIDropDownMenuTemplates.xml
UIDropDownMenu.lua
HadAPieEmotes.lua
HadAPieEmotes.xml